{
  "type": "service_account",
  "project_id": "appquest-dcb91",
  "private_key_id": "8f68c058f802a6b679d2151d3c5270e3cc1a1014",
  "private_key": "-----BEGIN PRIVATE KEY-----\nMIIEvAIBADANBgkqhkiG9w0BAQEFAASCBKYwggSiAgEAAoIBAQDfu2RbD8XQRgtL\nyH+HuiqZYgh34/uOhQferXOJg3b1w/vbgN4o5XU1czzp6GU+hGC9EeVeTGUkRth1\nSjbBrj8TSXxym4lv4q9GSJmRqim9Ayv4m+q0nsIpw/G8wVTfmAeKYMkcSUE0OuwC\nRwL6QFXZJwxjfFyRTif3trjMzGF7nOirDx90//h33PnwVo+V6R3mkMXAxPp64EyI\n6MNbaL8+a/R1J+8N27twoBDFdUis7azXeM85XL1pHWVatoqSsAvjlZ3m+vWY1DWO\n6DWizwmXIJqXJsCWl07SJy4fDRiEv/tntIHEMmCc1TIDPdbEuKsrcUo+sONDW5gA\nKa+t4FVlAgMBAAECggEAAIJkThjES7iwTRhEKHW+1xT0DZUFSf1fitA8rRl363aD\n9Xhe1egzBhyHDPlGEbuRBNBfnbSK0Zq5SQffbApB6bQguZoR2NSPrzDguJ/GJibP\nTARlQMs27r8CQK3BmOi3S63AuqgoCXIA5SU7cOc1ZGzEVUDZOeao2W8fDvuAIh0b\nC1KDuD8JZQVtujVn492/3mMLGUSnJQ1WJaOZxzx3mS7XdHuu4xa1cXMa7plx0u9H\nev2WP0vKamUWSz1evfscBJjbUs35NR3zAPM5Iiq59KuwQ2DxVBtoBrWmCl0aha3T\noBScaW4H3/V3Tr2+sC4gqyaR6DcMK6bT0cmdkOiKgQKBgQD43iShgra8bIa0KSyA\nISOfdpE8ntH1RC7h9gjt7k7DxFG2+ksqZB7pFrwK5aJXkWt4e4rNW3kzlFM8ZVOW\nKzhx+M9gz0iccGu74osVrwwtWxprCoxNaOaJxvbDeptvnuN1g4TCyIM3EK1thkIx\nqQebXUMy0d8Y/iI8DSs3E5aKEQKBgQDmJNYsV0A+AQCR5Xow9mtag7Wb0LPbKuLV\nVukRwnii2s5V+UCuEAHqGc7HPTRcNcFSGDYBuXLKBw77yVoQSNZQ+83sr+UdoqYJ\noa330a9uxTavbxTGe1tvvYF9JvErVHKmTtkcQO4f9OvxbiMO7l3uujXimonAJf/t\nxJtgXmTiFQKBgHZi9nn+fH9WAR5jF9A7835AIQb9ZlOOg97p84V7/+wQz+6DUo5v\n4mRvdDSa2IdfnghKfNUD1rw6qv3oFcMx/D/7ZGthL+F7eUR/mDpQczKATCjvc56/\ncCvKgkirYpXOt9WHIvil+gWP4XBglcyZ5Ax8aSMbw01YV2DJwu0IXGyBAoGAGWvC\nOH2eu/qSXIszdwsRCpt3yPFBnJjdG2GRNwP7HUn79qUkjtV30KrvGzTYfsL1SqMf\n/ArG8ifbcNZp21igS6u0sEsxjJd1raStOa1wqlSgWLp1WgMwM2SEVBWkF/wo+dPF\nyYgmhWMhWLaoqrKLr53j69bUFmRcI6BO5VMn440CgYAksDBcEc8To1PXBip8HNuW\nnyu0fewpuY4mCpmT7GUhDVMKtC98YBTnBFkRqZki0Le7MX4P3Ak9zwORArKjym1K\nBq85EQDsiTlWa5MZNsJjdioB3suc1E9hFov0d2MObRXz8jXJ0qZDcGIAiRD2rBUB\n5CvppMdjZFo8ZeGzmFcZ7g==\n-----END PRIVATE KEY-----\n",
  "client_email": "firebase-adminsdk-ojn1b@appquest-dcb91.iam.gserviceaccount.com",
  "client_id": "103556483935348251991",
  "auth_uri": "https://accounts.google.com/o/oauth2/auth",
  "token_uri": "https://oauth2.googleapis.com/token",
  "auth_provider_x509_cert_url": "https://www.googleapis.com/oauth2/v1/certs",
  "client_x509_cert_url": "https://www.googleapis.com/robot/v1/metadata/x509/firebase-adminsdk-ojn1b%40appquest-dcb91.iam.gserviceaccount.com"
}
